\relax 
\providecommand\hyper@newdestlabel[2]{}
\@nameuse{bbl@beforestart}
\catcode `"\active 
\catcode `<\active 
\catcode `>\active 
\@nameuse{es@quoting}
\providecommand\HyperFirstAtBeginDocument{\AtBeginDocument}
\HyperFirstAtBeginDocument{\ifx\hyper@anchor\@undefined
\global\let\oldcontentsline\contentsline
\gdef\contentsline#1#2#3#4{\oldcontentsline{#1}{#2}{#3}}
\global\let\oldnewlabel\newlabel
\gdef\newlabel#1#2{\newlabelxx{#1}#2}
\gdef\newlabelxx#1#2#3#4#5#6{\oldnewlabel{#1}{{#2}{#3}}}
\AtEndDocument{\ifx\hyper@anchor\@undefined
\let\contentsline\oldcontentsline
\let\newlabel\oldnewlabel
\fi}
\fi}
\global\let\hyper@last\relax 
\gdef\HyperFirstAtBeginDocument#1{#1}
\providecommand\HyField@AuxAddToFields[1]{}
\providecommand\HyField@AuxAddToCoFields[2]{}
\babel@aux{spanish}{}
\newlabel{index::doc}{{}{1}{}{section*.2}{}}
\@writefile{toc}{\contentsline {chapter}{\numberline {1}Estructura del proyecto}{3}{chapter.1}\protected@file@percent }
\@writefile{lof}{\addvspace {10\p@ }}
\@writefile{lot}{\addvspace {10\p@ }}
\newlabel{index:estructura-del-proyecto}{{1}{3}{Estructura del proyecto}{chapter.1}{}}
\@writefile{toc}{\contentsline {chapter}{\numberline {2}Documentación por capas acorde a la estructura del proyecto}{7}{chapter.2}\protected@file@percent }
\@writefile{lof}{\addvspace {10\p@ }}
\@writefile{lot}{\addvspace {10\p@ }}
\newlabel{index:documentacion-por-capas-acorde-a-la-estructura-del-proyecto}{{2}{7}{Documentación por capas acorde a la estructura del proyecto}{chapter.2}{}}
\@writefile{toc}{\contentsline {section}{\numberline {2.1}Dominio}{7}{section.2.1}\protected@file@percent }
\newlabel{index:module-domain.entities.blackListTokenModel}{{2.1}{7}{Dominio}{section.2.1}{}}
\newlabel{index:dominio}{{2.1}{7}{Dominio}{section.2.1}{}}
\newlabel{index:domain.entities.blackListTokenModel.BlacklistToken}{{2.1}{7}{Dominio}{section*.3}{}}
\newlabel{index:domain.entities.blackListTokenModel.BlacklistToken.check_blacklist}{{2.1}{7}{Dominio}{section*.4}{}}
\newlabel{index:module-domain.entities.dataByMeterModel}{{2.1}{7}{Dominio}{section*.5}{}}
\newlabel{index:domain.entities.dataByMeterModel.dataByMeter}{{2.1}{7}{Dominio}{section*.6}{}}
\newlabel{index:module-domain.entities.filesByUserModel}{{2.1}{7}{Dominio}{section*.7}{}}
\newlabel{index:domain.entities.filesByUserModel.filesByUserModel}{{2.1}{7}{Dominio}{section*.8}{}}
\newlabel{index:module-domain.entities.metersModel}{{2.1}{7}{Dominio}{section*.9}{}}
\newlabel{index:domain.entities.metersModel.metersByUserModel}{{2.1}{7}{Dominio}{section*.10}{}}
\newlabel{index:module-domain.entities.performanceBytechniqueModel}{{2.1}{8}{Dominio}{section*.11}{}}
\newlabel{index:domain.entities.performanceBytechniqueModel.performanceByTechnique}{{2.1}{8}{Dominio}{section*.12}{}}
\newlabel{index:module-domain.entities.userModel}{{2.1}{8}{Dominio}{section*.13}{}}
\newlabel{index:domain.entities.userModel.UserModel}{{2.1}{8}{Dominio}{section*.14}{}}
\newlabel{index:domain.entities.userModel.UserModel.decode_auth_token}{{2.1}{8}{Dominio}{section*.15}{}}
\newlabel{index:domain.entities.userModel.UserModel.encode_auth_token}{{2.1}{8}{Dominio}{section*.16}{}}
\newlabel{index:module-domain.abstract_entities.chech_forms}{{2.1}{8}{Dominio}{section*.17}{}}
\newlabel{index:domain.abstract_entities.chech_forms.utils_to_check_forms}{{2.1}{8}{Dominio}{section*.18}{}}
\newlabel{index:domain.abstract_entities.chech_forms.utils_to_check_forms.check_email_format}{{2.1}{8}{Dominio}{section*.19}{}}
\newlabel{index:domain.abstract_entities.chech_forms.utils_to_check_forms.check_password_requirements}{{2.1}{9}{Dominio}{section*.20}{}}
\@writefile{toc}{\contentsline {section}{\numberline {2.2}Casos de uso}{9}{section.2.2}\protected@file@percent }
\newlabel{index:module-use_cases.classEnd2End}{{2.2}{9}{Casos de uso}{section.2.2}{}}
\newlabel{index:casos-de-uso}{{2.2}{9}{Casos de uso}{section.2.2}{}}
\newlabel{index:use_cases.classEnd2End.Classend2end}{{2.2}{9}{Casos de uso}{section*.21}{}}
\newlabel{index:use_cases.classEnd2End.Classend2end.balance_train}{{2.2}{9}{Casos de uso}{section*.22}{}}
\newlabel{index:use_cases.classEnd2End.Classend2end.evaluate_performance}{{2.2}{9}{Casos de uso}{section*.23}{}}
\newlabel{index:use_cases.classEnd2End.Classend2end.predict}{{2.2}{9}{Casos de uso}{section*.24}{}}
\newlabel{index:use_cases.classEnd2End.Classend2end.read_tensor}{{2.2}{9}{Casos de uso}{section*.25}{}}
\newlabel{index:use_cases.classEnd2End.Classend2end.standardize}{{2.2}{9}{Casos de uso}{section*.26}{}}
\newlabel{index:use_cases.classEnd2End.Classend2end.train}{{2.2}{9}{Casos de uso}{section*.27}{}}
\newlabel{index:use_cases.classEnd2End.Classend2end.train_test_split}{{2.2}{9}{Casos de uso}{section*.28}{}}
\newlabel{index:module-use_cases.classifier}{{2.2}{10}{Casos de uso}{section*.29}{}}
\newlabel{index:use_cases.classifier.Classifier}{{2.2}{10}{Casos de uso}{section*.30}{}}
\newlabel{index:use_cases.classifier.Classifier.balance_train}{{2.2}{10}{Casos de uso}{section*.31}{}}
\newlabel{index:use_cases.classifier.Classifier.evaluate_performance}{{2.2}{10}{Casos de uso}{section*.32}{}}
\newlabel{index:use_cases.classifier.Classifier.optimize_hyper_parametersRF}{{2.2}{10}{Casos de uso}{section*.33}{}}
\newlabel{index:use_cases.classifier.Classifier.predict}{{2.2}{10}{Casos de uso}{section*.34}{}}
\newlabel{index:use_cases.classifier.Classifier.predict2}{{2.2}{10}{Casos de uso}{section*.35}{}}
\newlabel{index:use_cases.classifier.Classifier.read_feat_mat}{{2.2}{10}{Casos de uso}{section*.36}{}}
\newlabel{index:use_cases.classifier.Classifier.save_pickle}{{2.2}{10}{Casos de uso}{section*.37}{}}
\newlabel{index:use_cases.classifier.Classifier.standardize}{{2.2}{11}{Casos de uso}{section*.38}{}}
\newlabel{index:use_cases.classifier.Classifier.train}{{2.2}{11}{Casos de uso}{section*.39}{}}
\newlabel{index:use_cases.classifier.Classifier.train_test_split}{{2.2}{11}{Casos de uso}{section*.40}{}}
\newlabel{index:module-use_cases.DNN}{{2.2}{11}{Casos de uso}{section*.41}{}}
\newlabel{index:use_cases.DNN.RNNSeries}{{2.2}{11}{Casos de uso}{section*.42}{}}
\newlabel{index:use_cases.DNN.RNNSeries.forward}{{2.2}{11}{Casos de uso}{section*.43}{}}
\newlabel{index:use_cases.DNN.SeqDataset}{{2.2}{11}{Casos de uso}{section*.44}{}}
\newlabel{index:use_cases.DNN.SeqDataset_pred}{{2.2}{11}{Casos de uso}{section*.45}{}}
\newlabel{index:use_cases.DNN.Trainer}{{2.2}{11}{Casos de uso}{section*.46}{}}
\newlabel{index:use_cases.DNN.Trainer.fit}{{2.2}{12}{Casos de uso}{section*.47}{}}
\newlabel{index:use_cases.DNN.Trainer.predict}{{2.2}{12}{Casos de uso}{section*.48}{}}
\newlabel{index:use_cases.DNN.Trainer.predict2}{{2.2}{12}{Casos de uso}{section*.49}{}}
\newlabel{index:module-use_cases.featureExtractionTime}{{2.2}{12}{Casos de uso}{section*.50}{}}
\newlabel{index:use_cases.featureExtractionTime.FeatureExtraction}{{2.2}{12}{Casos de uso}{section*.51}{}}
\newlabel{index:use_cases.featureExtractionTime.FeatureExtraction.extract_features_data1}{{2.2}{12}{Casos de uso}{section*.52}{}}
\newlabel{index:use_cases.featureExtractionTime.FeatureExtraction.get_labels}{{2.2}{13}{Casos de uso}{section*.53}{}}
\newlabel{index:use_cases.featureExtractionTime.FeatureExtraction.runProcess}{{2.2}{13}{Casos de uso}{section*.54}{}}
\newlabel{index:module-use_cases.fromTensors}{{2.2}{13}{Casos de uso}{section*.55}{}}
\newlabel{index:use_cases.fromTensors.FormTensors}{{2.2}{13}{Casos de uso}{section*.56}{}}
\newlabel{index:use_cases.fromTensors.FormTensors.form_tensor}{{2.2}{13}{Casos de uso}{section*.57}{}}
\newlabel{index:module-use_cases.getLabelsProblems}{{2.2}{13}{Casos de uso}{section*.58}{}}
\newlabel{index:use_cases.getLabelsProblems.labelsProblem}{{2.2}{13}{Casos de uso}{section*.59}{}}
\newlabel{index:use_cases.getLabelsProblems.labelsProblem.getLabels}{{2.2}{13}{Casos de uso}{section*.60}{}}
\newlabel{index:use_cases.getLabelsProblems.labelsProblem.numClassByProblem}{{2.2}{13}{Casos de uso}{section*.61}{}}
\newlabel{index:module-use_cases.kmeansMethod}{{2.2}{14}{Casos de uso}{section*.62}{}}
\newlabel{index:use_cases.kmeansMethod.kMeansML}{{2.2}{14}{Casos de uso}{section*.63}{}}
\newlabel{index:use_cases.kmeansMethod.kMeansML.applyLDA}{{2.2}{14}{Casos de uso}{section*.64}{}}
\newlabel{index:use_cases.kmeansMethod.kMeansML.fit_and_predict}{{2.2}{14}{Casos de uso}{section*.65}{}}
\newlabel{index:use_cases.kmeansMethod.kMeansML.predict}{{2.2}{14}{Casos de uso}{section*.66}{}}
\newlabel{index:use_cases.kmeansMethod.kMeansML.save_pickle}{{2.2}{14}{Casos de uso}{section*.67}{}}
\newlabel{index:module-use_cases.lSVMMethod}{{2.2}{14}{Casos de uso}{section*.68}{}}
\newlabel{index:use_cases.lSVMMethod.linearSVM}{{2.2}{14}{Casos de uso}{section*.69}{}}
\newlabel{index:use_cases.lSVMMethod.linearSVM.fit_and_predict}{{2.2}{14}{Casos de uso}{section*.70}{}}
\newlabel{index:use_cases.lSVMMethod.linearSVM.predict}{{2.2}{15}{Casos de uso}{section*.71}{}}
\newlabel{index:use_cases.lSVMMethod.linearSVM.remove_bad_labels}{{2.2}{15}{Casos de uso}{section*.72}{}}
\newlabel{index:use_cases.lSVMMethod.linearSVM.save_pickle}{{2.2}{15}{Casos de uso}{section*.73}{}}
\newlabel{index:module-use_cases.manageIncomingFiles}{{2.2}{15}{Casos de uso}{section*.74}{}}
\newlabel{index:use_cases.manageIncomingFiles.manageInputFile}{{2.2}{15}{Casos de uso}{section*.75}{}}
\newlabel{index:use_cases.manageIncomingFiles.manageInputFile.formattingFile}{{2.2}{15}{Casos de uso}{section*.76}{}}
\newlabel{index:module-use_cases.read_preprocess}{{2.2}{15}{Casos de uso}{section*.77}{}}
\newlabel{index:use_cases.read_preprocess.ReadPreprocess}{{2.2}{15}{Casos de uso}{section*.78}{}}
\newlabel{index:use_cases.read_preprocess.ReadPreprocess.filter_dataMA}{{2.2}{15}{Casos de uso}{section*.79}{}}
\newlabel{index:use_cases.read_preprocess.ReadPreprocess.imputate_data}{{2.2}{15}{Casos de uso}{section*.80}{}}
\newlabel{index:use_cases.read_preprocess.ReadPreprocess.read_data}{{2.2}{15}{Casos de uso}{section*.81}{}}
\newlabel{index:use_cases.read_preprocess.ReadPreprocess.run_process}{{2.2}{16}{Casos de uso}{section*.82}{}}
\newlabel{index:use_cases.read_preprocess.ReadPreprocess.save_pickle}{{2.2}{16}{Casos de uso}{section*.83}{}}
\newlabel{index:use_cases.read_preprocess.ReadPreprocess.segment_data}{{2.2}{16}{Casos de uso}{section*.84}{}}
\newlabel{index:module-use_cases.utils.a_sync_methods}{{2.2}{16}{Casos de uso}{section*.85}{}}
\newlabel{index:use_cases.utils.a_sync_methods.frecuency_methods}{{2.2}{16}{Casos de uso}{section*.86}{}}
\newlabel{index:use_cases.utils.a_sync_methods.sync_frecuency_methods}{{2.2}{16}{Casos de uso}{section*.87}{}}
\newlabel{index:use_cases.utils.a_sync_methods.sync_time_method}{{2.2}{17}{Casos de uso}{section*.88}{}}
\newlabel{index:use_cases.utils.a_sync_methods.time_method}{{2.2}{17}{Casos de uso}{section*.89}{}}
\newlabel{index:module-use_cases.utils.run_tech}{{2.2}{18}{Casos de uso}{section*.90}{}}
\newlabel{index:use_cases.utils.run_tech.frec_feat}{{2.2}{18}{Casos de uso}{section*.91}{}}
\newlabel{index:use_cases.utils.run_tech.kmeans_tech_fit_predict}{{2.2}{18}{Casos de uso}{section*.92}{}}
\newlabel{index:use_cases.utils.run_tech.kmeans_tech_predict}{{2.2}{18}{Casos de uso}{section*.93}{}}
\newlabel{index:use_cases.utils.run_tech.lsvm_tech_fit_predict}{{2.2}{19}{Casos de uso}{section*.94}{}}
\newlabel{index:use_cases.utils.run_tech.lsvm_tech_predict}{{2.2}{19}{Casos de uso}{section*.95}{}}
\newlabel{index:use_cases.utils.run_tech.nn_tech_fit_predict}{{2.2}{20}{Casos de uso}{section*.96}{}}
\newlabel{index:use_cases.utils.run_tech.nn_tech_predict}{{2.2}{20}{Casos de uso}{section*.97}{}}
\newlabel{index:use_cases.utils.run_tech.rf_tech_fit_predict}{{2.2}{20}{Casos de uso}{section*.98}{}}
\newlabel{index:use_cases.utils.run_tech.rf_tech_predict}{{2.2}{21}{Casos de uso}{section*.99}{}}
\newlabel{index:use_cases.utils.run_tech.time_feat}{{2.2}{21}{Casos de uso}{section*.100}{}}
\newlabel{index:module-use_cases.utils.tools}{{2.2}{21}{Casos de uso}{section*.101}{}}
\newlabel{index:use_cases.utils.tools.butter_bandpass}{{2.2}{21}{Casos de uso}{section*.102}{}}
\newlabel{index:use_cases.utils.tools.butter_bandpass_filter}{{2.2}{22}{Casos de uso}{section*.103}{}}
\newlabel{index:use_cases.utils.tools.butter_highpass}{{2.2}{22}{Casos de uso}{section*.104}{}}
\newlabel{index:use_cases.utils.tools.butter_highpass_filter}{{2.2}{22}{Casos de uso}{section*.105}{}}
\newlabel{index:use_cases.utils.tools.butter_lowpass}{{2.2}{22}{Casos de uso}{section*.106}{}}
\newlabel{index:use_cases.utils.tools.butter_lowpass_filter}{{2.2}{22}{Casos de uso}{section*.107}{}}
\newlabel{index:use_cases.utils.tools.filtBankAndEnergyWindow}{{2.2}{23}{Casos de uso}{section*.108}{}}
\newlabel{index:use_cases.utils.tools.frecFeatureExtraction}{{2.2}{23}{Casos de uso}{section*.109}{}}
\newlabel{index:use_cases.utils.tools.hamm_energ}{{2.2}{23}{Casos de uso}{section*.110}{}}
\newlabel{index:use_cases.utils.tools.normalizeWindowEnergy}{{2.2}{23}{Casos de uso}{section*.111}{}}
\newlabel{index:use_cases.utils.tools.order_series}{{2.2}{23}{Casos de uso}{section*.112}{}}
\newlabel{index:use_cases.utils.tools.windowing}{{2.2}{23}{Casos de uso}{section*.113}{}}
\@writefile{toc}{\contentsline {section}{\numberline {2.3}Repositorio}{24}{section.2.3}\protected@file@percent }
\newlabel{index:module-repository.db_services.checkLoginService}{{2.3}{24}{Repositorio}{section.2.3}{}}
\newlabel{index:repositorio}{{2.3}{24}{Repositorio}{section.2.3}{}}
\newlabel{index:repository.db_services.checkLoginService.checkLogin}{{2.3}{24}{Repositorio}{section*.114}{}}
\newlabel{index:module-repository.db_services.checkLogoutService}{{2.3}{24}{Repositorio}{section*.115}{}}
\newlabel{index:repository.db_services.checkLogoutService.checkLogout}{{2.3}{24}{Repositorio}{section*.116}{}}
\newlabel{index:module-repository.db_services.filesByuser}{{2.3}{24}{Repositorio}{section*.117}{}}
\newlabel{index:repository.db_services.filesByuser.getFilesByUser}{{2.3}{24}{Repositorio}{section*.118}{}}
\newlabel{index:repository.db_services.filesByuser.saveFilesByUser}{{2.3}{25}{Repositorio}{section*.119}{}}
\newlabel{index:module-repository.db_services.getDataByMeterService}{{2.3}{25}{Repositorio}{section*.120}{}}
\newlabel{index:repository.db_services.getDataByMeterService.getAllData}{{2.3}{25}{Repositorio}{section*.121}{}}
\newlabel{index:repository.db_services.getDataByMeterService.getDataByMeter}{{2.3}{26}{Repositorio}{section*.122}{}}
\newlabel{index:module-repository.db_services.getUserInfo}{{2.3}{26}{Repositorio}{section*.123}{}}
\newlabel{index:repository.db_services.getUserInfo.getUserInfo}{{2.3}{26}{Repositorio}{section*.124}{}}
\newlabel{index:module-repository.db_services.meterTableServices}{{2.3}{26}{Repositorio}{section*.125}{}}
\newlabel{index:repository.db_services.meterTableServices.createMeterTable}{{2.3}{26}{Repositorio}{section*.126}{}}
\newlabel{index:module-repository.db_services.performaceByModelService}{{2.3}{26}{Repositorio}{section*.127}{}}
\newlabel{index:repository.db_services.performaceByModelService.getPerformanceByData}{{2.3}{26}{Repositorio}{section*.128}{}}
\newlabel{index:repository.db_services.performaceByModelService.savePerformanceData}{{2.3}{26}{Repositorio}{section*.129}{}}
\newlabel{index:module-repository.db_services.registerUserService}{{2.3}{27}{Repositorio}{section*.130}{}}
\newlabel{index:repository.db_services.registerUserService.registerUserdb}{{2.3}{27}{Repositorio}{section*.131}{}}
\newlabel{index:module-repository.db_services.getMetersService}{{2.3}{27}{Repositorio}{section*.132}{}}
\newlabel{index:repository.db_services.getMetersService.getMeterList}{{2.3}{27}{Repositorio}{section*.133}{}}
\@writefile{toc}{\contentsline {section}{\numberline {2.4}Interfaces}{27}{section.2.4}\protected@file@percent }
\newlabel{index:module-interfaces_adapters.rest_adapters.web_services.dataByMeterService}{{2.4}{27}{Interfaces}{section.2.4}{}}
\newlabel{index:interfaces}{{2.4}{27}{Interfaces}{section.2.4}{}}
\newlabel{index:interfaces_adapters.rest_adapters.web_services.dataByMeterService.getDataByMeterS}{{2.4}{27}{Interfaces}{section*.134}{}}
\newlabel{index:module-interfaces_adapters.rest_adapters.web_services.featuresAndTechniquesService}{{2.4}{27}{Interfaces}{section*.135}{}}
\newlabel{index:interfaces_adapters.rest_adapters.web_services.featuresAndTechniquesService.featuresAndTech}{{2.4}{27}{Interfaces}{section*.136}{}}
\newlabel{index:module-interfaces_adapters.rest_adapters.web_services.getPerformanceDataByModel}{{2.4}{27}{Interfaces}{section*.137}{}}
\newlabel{index:interfaces_adapters.rest_adapters.web_services.getPerformanceDataByModel.perByModel}{{2.4}{27}{Interfaces}{section*.138}{}}
\newlabel{index:module-interfaces_adapters.rest_adapters.web_services.loadFileService}{{2.4}{27}{Interfaces}{section*.139}{}}
\newlabel{index:interfaces_adapters.rest_adapters.web_services.loadFileService.uploadFile}{{2.4}{27}{Interfaces}{section*.140}{}}
\newlabel{index:module-interfaces_adapters.rest_adapters.web_services.loadLabelsService}{{2.4}{27}{Interfaces}{section*.141}{}}
\newlabel{index:interfaces_adapters.rest_adapters.web_services.loadLabelsService.uploadLabelsFile}{{2.4}{27}{Interfaces}{section*.142}{}}
\newlabel{index:module-interfaces_adapters.rest_adapters.web_services.logoutService}{{2.4}{27}{Interfaces}{section*.143}{}}
\newlabel{index:interfaces_adapters.rest_adapters.web_services.logoutService.logoutUser}{{2.4}{27}{Interfaces}{section*.144}{}}
\newlabel{index:module-interfaces_adapters.rest_adapters.web_services.registerUserService}{{2.4}{28}{Interfaces}{section*.145}{}}
\newlabel{index:interfaces_adapters.rest_adapters.web_services.registerUserService.registerUser}{{2.4}{28}{Interfaces}{section*.146}{}}
\newlabel{index:module-interfaces_adapters.rest_adapters.web_services.meterListService}{{2.4}{28}{Interfaces}{section*.147}{}}
\newlabel{index:interfaces_adapters.rest_adapters.web_services.meterListService.getMeters}{{2.4}{28}{Interfaces}{section*.148}{}}
\newlabel{index:module-interfaces_adapters.rest_adapters.web_services.userInfoService}{{2.4}{28}{Interfaces}{section*.149}{}}
\newlabel{index:interfaces_adapters.rest_adapters.web_services.userInfoService.userInfo}{{2.4}{28}{Interfaces}{section*.150}{}}
\newlabel{index:module-interfaces_adapters.rest_adapters.web_services.loginService}{{2.4}{28}{Interfaces}{section*.151}{}}
\newlabel{index:interfaces_adapters.rest_adapters.web_services.loginService.loginUser}{{2.4}{28}{Interfaces}{section*.152}{}}
\@writefile{toc}{\contentsline {section}{\numberline {2.5}Serializadores}{28}{section.2.5}\protected@file@percent }
\newlabel{index:module-interfaces_adapters.serializers.json.dataByMeterSerializer}{{2.5}{28}{Serializadores}{section.2.5}{}}
\newlabel{index:serializadores}{{2.5}{28}{Serializadores}{section.2.5}{}}
\newlabel{index:interfaces_adapters.serializers.json.dataByMeterSerializer.dataByMeterEncoder}{{2.5}{28}{Serializadores}{section*.153}{}}
\newlabel{index:interfaces_adapters.serializers.json.dataByMeterSerializer.dataByMeterEncoder.encode}{{2.5}{28}{Serializadores}{section*.154}{}}
\newlabel{index:id0}{{2.5}{29}{Serializadores}{section*.155}{}}
\newlabel{index:id3}{{2.5}{29}{Serializadores}{section*.156}{}}
\@writefile{toc}{\contentsline {chapter}{\numberline {3}Indices and tables}{31}{chapter.3}\protected@file@percent }
\@writefile{lof}{\addvspace {10\p@ }}
\@writefile{lot}{\addvspace {10\p@ }}
\newlabel{index:indices-and-tables}{{3}{31}{Indices and tables}{chapter.3}{}}
\@writefile{toc}{\contentsline {chapter}{Índice de Módulos Python}{33}{section*.157}\protected@file@percent }
\@writefile{toc}{\contentsline {chapter}{Índice}{35}{section*.158}\protected@file@percent }
