\babel@toc {spanish}{}
\contentsline {chapter}{\numberline {1}Estructura del proyecto}{3}{chapter.1}%
\contentsline {chapter}{\numberline {2}Documentación por capas acorde a la estructura del proyecto}{7}{chapter.2}%
\contentsline {section}{\numberline {2.1}Dominio}{7}{section.2.1}%
\contentsline {section}{\numberline {2.2}Casos de uso}{9}{section.2.2}%
\contentsline {section}{\numberline {2.3}Repositorio}{24}{section.2.3}%
\contentsline {section}{\numberline {2.4}Interfaces}{27}{section.2.4}%
\contentsline {section}{\numberline {2.5}Serializadores}{28}{section.2.5}%
\contentsline {chapter}{\numberline {3}Indices and tables}{31}{chapter.3}%
\contentsline {chapter}{Índice de Módulos Python}{33}{section*.157}%
\contentsline {chapter}{Índice}{35}{section*.158}%
